v -4.9816176e-06 3.6523446e-06 1.2835289e-06
v -4.7593428e-06 3.4947103e-06 2.2246942e-06
v -5.0881341e-06 2.6383311e-06 2.6383311e-06
v -5.5699164e-06 2.6352602e-06 1.354472e-06
v -5.3720344e-06 2.7794479e-06 2.7794479e-06
v -5.6222964e-06 2.7821215e-06 2.1066284e-06
v -5.8725583e-06 2.7847952e-06 1.4338089e-06
v -5.2300843e-06 2.7088895e-06 2.7088895e-06
v -5.0203901e-06 3.6877687e-06 2.3472939e-06
v -5.1364813e-06 3.771817e-06 1.8520915e-06
v -5.4005426e-06 3.2487825e-06 1.9661067e-06
v -5.1962122e-06 3.2336083e-06 2.5633709e-06
v -5.5625655e-06 3.3203302e-06 1.395349e-06
v -5.2525726e-06 3.8558652e-06 1.3568891e-06
l 1 2
l 2 3
l 3 4
l 4 1
l 5 6
l 6 7
l 7 4
l 4 3
l 3 8
l 8 5
l 9 10
l 10 11
l 11 12
l 12 9
l 7 6
l 6 11
l 11 13
l 13 7
l 14 13
l 13 11
l 11 10
l 10 14
l 5 6
l 6 11
l 11 12
l 12 5
l 5 12
l 12 9
l 9 2
l 2 3
l 3 8
l 8 5
l 9 10
l 10 14
l 14 1
l 1 2
l 2 9
l 7 4
l 4 1
l 1 14
l 14 13
l 13 7
